{
  "nodes": [{
    "zwave":[
      {
        "name":"Upstairs Retreat Lamp",
        "address": 2,
        "instance": 1,
        "type":"Multilevel"
      },
      {
        "name":"Downstairs Guest Room Lamp",
        "address": 3,
        "instance": 1,
        "type":"Multilevel"
      },
      {
        "name":"Lounge Lamp",
        "address": 4,
        "instance": 1,
        "type":"Binary"
      },
      {
        "name":"Riley's Electric Blanket",
        "address": 5,
        "instance": 1,
        "type":"Binary"
      },
      {
        "name":"Laundry PIR",
        "address": 6,
        "instance": 1,
        "type":"Sensor"
      },
      {
        "name":"Garage PIR",
        "address": 7,
        "instance": 1,
        "type":"Sensor"
      },
      {
        "name":"Walk In Robe PIR",
        "address": 8,
        "instance": 1,
        "type":"Sensor"
      },
      {
        "name":"Garage Light",
        "address": 9,
        "instance": 1,
        "type":"Binary"
      },
      {
        "name":"Garden Light",
        "address": 10,
        "instance": 1,
        "type":"Binary"
      },
      {
        "name":"Bench Light",
        "address": 11,
        "instance": 1,
        "type":"Binary"
      },
      {
        "name":"Laundry Light",
        "address": 12,
        "instance": 1,
        "type":"Binary"
      },
      {
        "name":"Walk In Robe Light",
        "address": 13,
        "instance": 1,
        "type":"Binary"
      },
      {
        "name":"Ensuite Towel Rail",
        "address": 14,
        "instance": 1,
        "type":"Binary"
      },
      {
        "name":"Stair Lights",
        "address": 17,
        "instance": 1,
        "type":"Multilevel"
      },
      {
        "name":"Exterior Light",
        "address": 24,
        "instance": 2,
        "type":"Binary"
      },
      {
        "name":"Niche Light",
        "address": 24,
        "instance": 3,
        "type":"Binary"
      }
    ]},
    {"relay":[
      {
        "name":"Spare 1",
        "address": 0,
        "active": 0
      },
      {
        "name":"Spare 2",
        "address": 1,
        "active": 0
      },
      {
        "name":"Spare 3",
        "address": 2,
        "active": 0
      },
      {
        "name":"Spare 4",
        "address": 3,
        "active": 0
      },
      {
        "name":"Spare 5",
        "address": 4,
        "active": 0
      },
      {
        "name":"Spare 6",
        "address": 5,
        "active": 0
      },
      {
        "name":"Spare 7",
        "address": 6,
        "active": 0
      },
      {
        "name":"Spare 8",
        "address": 7,
        "active": 0
      }
    ]},
    {"serial":[
    ]},
    {"web":[
      {
        "name":"zwave server",
        "address":"192.168.100.10:6105"
      },
      {
        "name":"slack",
        "address":"https://hooks.slack.com/services/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"
      }
    ]},
    {"input":[
    ]}
  ],

  "init":[
    {"name":"LATITUDE","value": -27.8816371},
    {"name":"LONGITUDE","value": -153.3163237},
    {"name":"BATTERY_ALERT","value":15},
    {"name":"UPSTAIRS_DIM","value":50},
    {"name":"GUEST_DIM","value":75},
    {"name":"STAIRS_DIM","value":1},
    {"name":"LAUNDRY_AUTO","value":"AUTO"},
    {"name":"WIR_AUTO","value":"AUTO"},
    {"name":"GARAGE_AUTO","value":"AUTO"},
    {"name":"VACATION","value":"OFF"},
    {"name":"SWITCH:Garage Light","value":"0"},
    {"name":"SWITCH:Pantry Light","value":"0"},
    {"name":"SWITCH:Walk In Robe Light","value":"0"},
    {"name":"SLACK_USER","value":"SHARC"}],

  "triggers":[
    {"name": "Daytime","rules":[
      {"type":"if-timer","value":"SR+0h30m", "class":"ALL"},
      {"type":"act-zwave","node":"Stair Lights","value":"OFF"}]
    },
    {"name": "Evening Lamps","rules":[
      {"type":"if-timer","value":"SS-0h20m", "class":"ALL"},
      {"type":"act-zwave","node":"Stair Lights","value":"ON"},
      {"type":"act-zwave","node":"Upstairs Retreat Lamp","value":"ON"},
      {"type":"act-zwave","node":"Downstairs Guest Room Lamp","value":"ON"},
      {"type":"act-zwave","node":"Lounge Lamp","value":"ON"}]
    },
    {"name": "Night Lamps","rules":[
      {"type":"if-timer","value":"22:30", "class":"ALL"},
      {"type":"act-zwave","node":"Upstairs Retreat Lamp","value":"OFF"},
      {"type":"act-zwave","node":"Downstairs Guest Room Lamp","value":"OFF"},
      {"type":"act-zwave","node":"Lounge Lamp","value":"OFF"}]
    },
    {"name": "Evening Lights","rules":[
      {"type":"if-timer","value":"SS-0h10m", "class":"ALL"},
      {"type":"act-zwave","node":"Niche Light","value":"ON"},
      {"type":"act-zwave","node":"Garden Light","value":"ON"},
      {"type":"act-zwave","node":"Bench Light","value":"ON"},
      {"type":"act-zwave","node":"Exterior Light","value":"ON"}]
    },
    {"name": "Night Lights","rules":[
      {"type":"if-timer","value":"22:29", "class":"ALL"},
      {"type":"act-zwave","node":"Niche Light","value":"OFF"},
      {"type":"act-zwave","node":"Garden Light","value":"OFF"},
      {"type":"act-zwave","node":"Bench Light","value":"OFF"}]
    },
    {"name": "Night Stairs","rules":[
      {"type":"if-timer","value":"22:20", "class":"ALL"},
      {"type":"act-zwave","node":"Stair Lights","value":"%STAIRS_DIM%"}]
    },
    {"name": "Middle of the Night","rules":[
      {"type":"if-timer","value":"00:00", "class":"ALL"},
      {"type":"set-variable","node":"%WIR_AUTO%", "value":"OFF"}]
    },
    {"name": "Not the Middle of the Night","rules":[
      {"type":"if-timer","value":"06:00", "class":"ALL"},
      {"type":"set-variable","node":"%WIR_AUTO%", "value":"AUTO"}]
    },
    {"name": "Exterior Lights On","rules":[
      {"type":"if-timer","value":"SS-0h15m", "class":"ALL"},
      {"type":"act-zwave","node":"Exterior Light","value":"ON"}]
    },
    {"name": "Exterior Lights Off - Monday","rules":[
      {"type":"if-timer","value":"22:30", "class":"MONDAY"},
      {"type":"act-zwave","node":"Exterior Light","value":"OFF"}]
    },
    {"name": "Exterior Lights Off - Tuesday","rules":[
      {"type":"if-timer","value":"22:30", "class":"TUESDAY"},
      {"type":"act-zwave","node":"Exterior Light","value":"OFF"}]
    },
    {"name": "Exterior Lights Off - Wednesday","rules":[
      {"type":"if-timer","value":"22:30", "class":"WEDNESDAY"},
      {"type":"act-zwave","node":"Exterior Light","value":"OFF"}]
    },
    {"name": "Exterior Lights Off - Thursday","rules":[
      {"type":"if-timer","value":"22:30", "class":"THURSDAY"},
      {"type":"act-zwave","node":"Exterior Light","value":"OFF"}]
    },
    {"name": "Exterior Lights Off - Friday","rules":[
      {"type":"if-timer","value":"23:59", "class":"FRIDAY"},
      {"type":"act-zwave","node":"Exterior Light","value":"OFF"}]
    },
    {"name": "Exterior Lights Off - Saturday", "rules":[
      {"type":"if-timer", "value":"23:59", "class":"SATURDAY"},
      {"type":"act-zwave", "node":"Exterior Light", "value":"OFF"}]
    },
    {"name": "Exterior Lights Off - Sunday","rules":[
      {"type":"if-timer", "value":"22:30", "class":"SUNDAY"},
      {"type":"act-zwave","node":"Exterior Light","value":"OFF"}]
    },
    {"name": "WIR Entry", "rules":[
      {"type":"if-event", "class":"COMMAND_CLASS_BASIC", "node":"Walk In Robe PIR", "value":"255"},
      {"type":"if-variable", "node":"%VACATION%", "class":"equal", "value": "OFF"},
      {"type":"if-variable", "node":"%WIR_AUTO%", "class":"equal", "value": "AUTO"},
      {"type":"act-zwave","node":"Walk In Robe Light", "value":"ON"},
      {"type":"if-period", "value":"30", "class": "ONCE"},
      {"type":"act-zwave","node":"Walk In Robe Light", "value":"OFF"}]
    },
    {"name": "WIR On", "rules":[
      {"type":"if-variable", "node":"%WIR_AUTO%", "class":"equal", "value":"ON"},
      {"type":"if-variable", "node":"%Walk In Robe Light:SWITCH%", "class":"equal", "value":"0"},
      {"type":"act-zwave","node":"Walk In Robe Light", "value":"ON"}]
    },
    {"name": "WIR Off", "rules":[
      {"type":"if-variable", "node":"%WIR_AUTO%", "class":"equal", "value":"OFF"},
      {"type":"if-variable", "node":"%Walk In Robe Light:SWITCH%", "class":"notequal", "value":"0"},
      {"type":"act-zwave","node":"Walk In Robe Light", "value":"OFF"}]
    },
      {"name": "Laundry Entry", "rules":[
      {"type":"if-event", "class":"COMMAND_CLASS_BASIC", "node":"Laundry PIR", "value":"255"},
      {"type":"if-variable", "node":"%VACATION%", "class":"equal", "value":"OFF"},
      {"type":"if-variable", "node":"%LAUNDRY_AUTO%", "class":"equal",  "value": "AUTO"},
      {"type":"act-zwave","node":"Pantry Light", "value":"ON"},
      {"type":"if-period", "value":"120", "class" :"ONCE"},
      {"type":"act-zwave","node":"Pantry Light", "value":"OFF"}]
    },
    {"name": "Laundry On", "rules":[
      {"type":"if-variable", "node":"%LAUNDRY_AUTO%", "class":"equal",  "value":"ON"},
      {"type":"if-variable", "node":"%Laundry Light:SWITCH%", "class":"equal", "value":"0"},
      {"type":"act-zwave","node":"Laundry Light", "value":"ON"}]
    },
    {"name": "Laundry Off", "rules":[
      {"type":"if-variable", "node":"%LAUNDRY_AUTO%", "class":"equal",  "value":"ON"},
      {"type":"if-variable", "node":"%Laundry Light:SWITCH%", "class":"notequal", "value":"0"},
      {"type":"act-zwave","node":"Laundry Light", "value":"OFF"}]
    },
    {"name": "Garage Entry", "rules":[
      {"type":"if-event", "class":"COMMAND_CLASS_BASIC", "node":"Garage PIR", "value":"255", "pOr":true},
      {"type":"if-event", "class":"COMMAND_CLASS_BASIC", "node":"Laundry PIR", "value":"255"},
      {"type":"if-variable", "node":"%VACATION%", "class":"equal", "value": "OFF"},
      {"type":"if-variable", "node":"%GARAGE_AUTO%", "class":"equal", "value":"AUTO"},
      {"type":"act-zwave","node":"Garage Light", "value":"ON"},
      {"type":"if-period", "value":"300", "class":"ONCE"},
      {"type":"act-zwave","node":"Garage Light", "value":"OFF"}]
    },
    {"name": "Garage On", "rules":[
      {"type":"if-variable", "node":"%GARAGE_AUTO%", "class":"equal", "value":"ON"},
      {"type":"if-variable", "node":"%Garage Light:SWITCH%", "class":"equal", "value":"0"},
      {"type":"act-zwave","node":"Garage Light", "value":"ON"}]
    },
    {"name": "Garage Off", "rules":[
      {"type":"if-variable", "node":"%GARAGE_AUTO%", "class":"equal", "value":"OFF"},
      {"type":"if-variable", "node":"%Garage Light:SWITCH%", "class":"notequal", "value":"0"},
      {"type":"act-zwave","node":"Garage Light", "value":"OFF"}]
    },
      {"name": "Garage Dummy", "rules":[
      {"type":"if-event", "class":"COMMAND_CLASS_BASIC", "node":"Garage PIR", "value":"0"},
      {"type":"dummy"}]
    },
    {"name": "Laundry Dummy", "rules":[
      {"type":"if-event", "class":"COMMAND_CLASS_BASIC", "node":"Laundry PIR", "value":"0"},
      {"type":"dummy"}]
    },
    {"name": "WIR Dummy", "rules":[
      {"type":"if-event", "class":"COMMAND_CLASS_BASIC", "node":"Walk In Robe PIR", "value":"0"},
      {"type":"dummy"}]
    },
    {"name": "WIR Notification", "rules":[
      {"type":"if-event", "class":"COMMAND_CLASS_BATTERY", "node": "Walk In Robe PIR"},
      {"type":"if-variable", "node": "%Walk In Robe PIR:BATTERY%", "class": "<", "value":"%BATTERY_ALERT%"},
      {"type":"act-slack", "node":"#housebot", "value":"Walk In Robe sensor battery low: %Walk In Robe PIR:BATTERY%%PERC% remaining."}]
    },
    {"name": "Garage Notification", "rules":[
      {"type":"if-event", "class":"COMMAND_CLASS_BATTERY", "node": "Garage PIR"},
      {"type":"if-variable", "node": "%Garage Sensor:BATTERY%", "class": "<", "value":"%BATTERY_ALERT%"},
      {"type":"act-slack", "node":"#housebot", "value":"Garage sensor battery low: %Garage Sensor:BATTERY%%PERC% remaining."}]
    },
    {"name": "Laundry Notification", "rules":[
      {"type":"if-event", "class":"COMMAND_CLASS_BATTERY", "node": "Laundry PIR"},
      {"type":"if-variable", "node": "%Laundry PIR:BATTERY%", "class": "<", "value":"%BATTERY_ALERT%"},
      {"type":"act-slack", "node":"#housebot", "value":"Laundry sensor battery low: %Laundry PIR:BATTERY%%PERC% remaining."}]
    },
    {"name": "Ensuite Towel Rail On - Weekday","rules":[
      {"type":"if-timer","value":"05:00", "class":"WEEKDAY"},
      {"type":"if-variable", "node":"%VACATION%", "class":"equal", "value": "OFF"},
      {"type":"act-zwave","node":"Ensuite Towel Rail","value":"ON"}]
    },
    {"name": "Ensuite Towel Rail Off - Weekday","rules":[
      {"type":"if-timer","value":"09:00", "class":"WEEKDAY"},
      {"type":"act-zwave","node":"Ensuite Towel Rail","value":"OFF"}]
    },
    {"name": "Ensuite Towel Rail On - Weekend","rules":[
      {"type":"if-timer","value":"06:00", "class":"WEEKEND"},
      {"type":"if-variable", "node":"%VACATION%", "class":"equal", "value": "OFF"},
      {"type":"act-zwave","node":"Ensuite Towel Rail","value":"ON"}]
    },
    {"name": "Ensuite Towel Rail Off - Saturday","rules":[
      {"type":"if-timer","value":"08:30", "class":"SATURDAY"},
      {"type":"act-zwave","node":"Ensuite Towel Rail","value":"OFF"}]
    },
    {"name": "Ensuite Towel Rail Off - Sunday","rules":[
      {"type":"if-timer","value":"10:00", "class":"SUNDAY"},
      {"type":"act-zwave","node":"Ensuite Towel Rail","value":"OFF"}]
    }],

  "actions":[
    {"name":"EnsuiteTowelRail_On","rules":[
      {"type":"act-zwave","node":"Ensuite Towel Rail","value":"ON"}]
    },
    {"name":"EnsuiteTowelRail_Off","rules":[
      {"type":"act-zwave","node":"Ensuite Towel Rail","value":"OFF"}]
    },

  ]
}
